{
    "results": [
        {
            "id": 301,
            "name": "Pamela Escobar Villalobos",
            "shared": true,
            "created_at": "2026-01-09T13:06:42.000Z",
            "creator_id": 161,
            "search_params": {
                "RUT(s) empresa (opcional)": ""
            },
            "blocked": false,
            "new_search_class": "Segunda Clave OJV",
            "new_username": "19832146-K",
            "creator_name": "Romina Azocar Leon",
            "cases_count": 0,
            "lemon_vault_creation": false,
            "user_ids": []
        },
        {
            "id": 300,
            "name": "Nicolás Muñoz",
            "shared": true,
            "created_at": "2026-01-08T12:21:31.000Z",
            "creator_id": 161,
            "search_params": {
                "RUT(s) empresa (opcional)": ""
            },
            "blocked": false,
            "new_search_class": "Segunda Clave OJV",
            "new_username": "18431792-3",
            "creator_name": "Romina Azocar Leon",
            "cases_count": 1442,
            "lemon_vault_creation": false,
            "user_ids": []
        },
        {
            "id": 299,
            "name": "Alexander cuellar",
            "shared": true,
            "created_at": "2025-11-12T12:54:41.000Z",
            "creator_id": 161,
            "search_params": {
                "RUT(s) empresa (opcional)": ""
            },
            "blocked": false,
            "new_search_class": "Segunda Clave OJV",
            "new_username": "26275603-3",
            "creator_name": "Romina Azocar Leon",
            "cases_count": 0,
            "lemon_vault_creation": false,
            "user_ids": []
        },
        {
            "id": 298,
            "name": "Valentina Pastene - segunda clave",
            "shared": true,
            "created_at": "2025-10-14T00:08:14.000Z",
            "creator_id": 495,
            "search_params": {
                "RUT(s) empresa (opcional)": ""
            },
            "blocked": true,
            "new_search_class": "Segunda Clave OJV",
            "new_username": "19564841-7",
            "creator_name": "Valentina Pastene Interno",
            "cases_count": 0,
            "lemon_vault_creation": false,
            "user_ids": []
        },
        {
            "id": 297,
            "name": "Enrique Escala - Lemontech",
            "shared": true,
            "created_at": "2025-10-13T20:02:30.000Z",
            "creator_id": 508,
            "search_params": {
                "RUT(s) empresa (opcional)": ""
            },
            "blocked": true,
            "new_search_class": "Segunda Clave OJV",
            "new_username": "15639006-2",
            "creator_name": "Enrique Escala Interno",
            "cases_count": 190,
            "lemon_vault_creation": false,
            "user_ids": []
        },
        {
            "id": 289,
            "name": "JORGE QUIJADA",
            "shared": true,
            "created_at": "2024-04-04T15:40:03.000Z",
            "creator_id": 253,
            "search_params": {
                "RUT(s) empresa (opcional)": ""
            },
            "blocked": false,
            "new_search_class": "Clave Única",
            "new_username": "10473161-9",
            "creator_name": "JORGE QUIJADA VICENCIO",
            "cases_count": 1499,
            "lemon_vault_creation": false,
            "user_ids": []
        },
        {
            "id": 288,
            "name": "TEODORO ROSENBERG",
            "shared": true,
            "created_at": "2024-03-07T13:05:41.000Z",
            "creator_id": 238,
            "search_params": {
                "RUT(s) empresa (opcional)": ""
            },
            "blocked": false,
            "new_search_class": "Clave Única",
            "new_username": "13321819-K",
            "creator_name": "TEODORO ANDRES ROSENBERG ARANCIBIA",
            "cases_count": 1936,
            "lemon_vault_creation": false,
            "user_ids": []
        },
        {
            "id": 263,
            "name": "Fernanda Clavijo",
            "shared": true,
            "created_at": "2023-08-02T15:02:57.000Z",
            "creator_id": 395,
            "search_params": {
                "RUT(s) empresa (opcional)": ""
            },
            "blocked": true,
            "new_search_class": "Segunda Clave OJV",
            "new_username": "18356555-9",
            "creator_name": "Fernanda Clavijo Melendez",
            "cases_count": 673,
            "lemon_vault_creation": false,
            "user_ids": []
        },
        {
            "id": 241,
            "name": "Carlos Ruiz",
            "shared": true,
            "created_at": "2023-07-20T20:34:29.000Z",
            "creator_id": 189,
            "search_params": {
                "RUT(s) empresa (opcional)": ""
            },
            "blocked": false,
            "new_search_class": "Clave Única",
            "new_username": "8598380-6",
            "creator_name": "CARLOS FERNANDO RUIZ LARRAL",
            "cases_count": 1086,
            "lemon_vault_creation": false,
            "user_ids": []
        },
        {
            "id": 208,
            "name": "TERESA VEAS PIZARRO",
            "shared": true,
            "created_at": "2023-07-13T15:54:10.000Z",
            "creator_id": 239,
            "search_params": {
                "RUT(s) empresa (opcional)": "7716887-7"
            },
            "blocked": false,
            "new_search_class": "Clave Única",
            "new_username": "7716887-7",
            "creator_name": "TERESA SILVIA VEAS PIZARRO",
            "cases_count": 871,
            "lemon_vault_creation": false,
            "user_ids": [
                239
            ]
        }
    ],
    "pagination": {
        "total_entries": 79,
        "total_pages": 8,
        "page_size": 10,
        "current_page": 1
    }
}